{"items":[{"id":2,"company_id":null,"collection_id":6,"source":"venturesquare","source_url":"https://www.venturesquare.net/1017987/","title":"AI가 바꾸는 부동산 개발의 첫 단추, 전주형 에디트콜렉티브 대표","content":"부동산 개발은 첫 단계가 결정적이다. 이 땅에 무엇을 지을 수 있고, 어떤 구성이 수익을 만드는가.\n그러나 판단은 늘 더뎠다. 법규 정보는 여기저기 흩어져 있고, 데이터는 손으로 일일이 모아야 했다. 소수 전문가의 경험에 기댔고, 비슷한 실수가 반복됐다.\n이제 시행사와 기관들은 토지의 개발 가능성과 사업성을 2~3분 안에 파악한다. AI 기반 자동 기획설계·사업성 분석 솔루션 ‘플렉시티(Flexity)’를 도입한 현장에서 벌어지는 일이다. 몇 주가 걸리던 기획설계 검토가 몇 분으로 줄었다. 부동산 개발이 경험에서 데이터로 옮겨가고 있다. 그 전환을 이끄는 사람이 전주형 에디트콜렉티브 대표다.\n현장이 던진 질문\n전주형 대표는 건축가로 경력을 시작했다. 영국 에든버러대학교에서 건축을 전공하고 UCL 바틀렛 건축대학원에서 석사를 마쳤다. 귀국 후에는 종합건축사사무소에서 도시개발 프로젝트의 기획설계에 참여했다. 하지만 매일 마주한 건 비효율이었다.\n“기획설계 과정이 지나치게 노동집약적이었어요. 중요한 결정은 초기 단계에서 내려지는데, 그 과정이 느리고 체계가 없었죠.”\n건축사가 그리는 도면과 시행사가 보는 숫자는 같은 건물을 전혀 다른 언어로 설명했다. 한쪽은 배치와 동선을 말하고, 다른 쪽은 분양성과 수익률을 따졌다. 둘을 맞추는 데 시간이 들었고, 정작 결론은 촉박하게 내려졌다.\n“건축사 머릿속의 설계 흐름을 알고리즘 위에 옮기고 데이터 기반으로 분석하면 효율적이지 않을까. 그 질문이 시작이었습니다.”\n처음에는 개인 업무용 소프트웨어를 만들었다. 실제 프로젝트에 적용하니 검토 속도가 눈에 띄게 빨라졌다. 공동창업자 김봉철 엔지니어를 만나면서 방향이 잡혔다. 건축사만 쓰는 툴이 아니라 부동산 시장 전체가 쓰는 서비스로 키우자. 플렉시티는 그렇게 시작됐다.\n3가지 병목\n기존 기획설계의 문제는 세 가지로 압축된다.\n첫째, 데이터가 흩어져 있다. 지적도, 건축법규, 지구단위계획, 시장 정보가 각각 다른 곳에 있어 프로젝트마다 처음부터 조사해야 했다.\n둘째, 검토할 수 있는 대안이 적다. 시간과 인력 한계로 소수의 시나리오만 살펴보고 결정을 내렸다.\n셋째, 언어가 다르다. 설계팀은 도면과 면적을, 투자팀은 개발 수익률과 현금흐름을 본다. 같은 사업을 두고 조율하는 데 시간이 낭비됐다.\n플렉시티는 이 세 문제를 한 번에 푼다. 토지 정보와 건축법규, 시장 데이터를 통합해 자동으로 개발 시나리오를 만들고 사업성을 분석한다. 건축사의 사고 흐름을 반영한 알고리즘과 AI가 여러 개의 3D 설계안을 생성하고, 각 안에 대해 3차원 모델링과 분양 및 임대 면적 정보와 함께 기초 사업성 지표를 한 화면에 보여준다. 건축 언어와 금융 언어가 같은 자리에서 만난다.\n“부동산 개발 시장의 ‘블룸버그 터미널’을 지향합니다. 디벨로퍼에겐 초기 판단 엔진이, 토지주에겐 잠재 가치를 설명하는 도구가, 공공기관에겐 후보지를 비교하는 솔루션이 되는 것이죠.”\n플렉시티는 2021년 출시 후 건축사사무소, 시행사, 신탁사, 자산운용사, 공공기관으로 고객을 넓혔다.\n최근 소규모주택정비사업 특화 솔루션을 내놨고, LH와 SH가 공식 도입해 정비사업 후보지 검토에 쓰고 있다. 이 모듈은 개별 사업지에 대해 2~3분 안에 공동주택 배치안과 기본 사업성 분석 결과를 자동으로 도출하도록 설계됐다. KT에스테이트, 한국토지신탁, 캠코도 토지 개발 가능성 분석에 플렉시티를 활용한다. 사용자들이 말하는 변화는 명확하다.\n‘속도가 달라졌다. 후보지 초기 검토가 수주에서 수 분으로 줄었다. 리스크 관리가 쉬워졌다. 여러 시나리오를 빠르게 비교해 수익성 낮은 사업지를 초기에 걸러낸다. 소통이 단순해졌다. 도면, 엑셀, 보고서가 따로 돌던 과거와 달리, 이해관계자들이 3D 기획설계안과 숫자를 한 화면에서 보며 논의한다.’\n14명 팀과 55억 투자\n에디트콜렉티브는 14명 규모다. Product팀, 건축팀, 비즈니스·운영팀 세 축으로 움직인다. 부동산과 건축, 소프트웨어라는 서로 다른 언어를 하나의 제품에 담는 일은 쉽지 않았다. 기능 단위가 아니라 ‘문제 정의 단위’로 우선순위를 정하고, 세 팀이 처음부터 한자리에 모여 논의한 뒤 개발을 시작한다.\n투자금은 55억 원. 본엔젤스 시드 투자로 시작해 해시드, 롯데벤처스, 스트롱벤처스가 시리즈A에 참여했다. KT에스테이트가 전략적 투자자로 합류해 현장 수요를 함께 점검한다. 2025년 실적을 바탕으로 내년 초 다음 라운드를 준비 중이다.\nAI는 결정을 대신하지 않는다\n그는 기술의 역할을 명확히 구분한다.\n“플렉시티는 정답지가 아닙니다. 법규와 조건을 입력하면 개발 시나리오를 보여주는 도구입니다. 최종 결정은 사람이 합니다.”\n시장 변화, 주민 협의, 정책 리스크는 여전히 전문가 판단 영역이다. AI는 복잡한 조건에서 여러 시나리오를 빠르게 제시할 뿐이다.\n“반복 계산은 자동화되지만, 어떤 가치를 우선할지는 사람 몫입니다. AI는 결정의 수준을 낮추는 게 아니라, 결정의 질을 높이는 방향으로 써야 합니다.”\n향후 5년 목표는 부동산 신축 개발의 첫 단계를 플렉시티가 담당하는 것이다.\n“디벨로퍼든 공공기관이든, 새 사업을 검토할 때 자료를 모으기 전에 먼저 플렉시티를 여는 것. 그런 흐름을 만들고 싶습니다.”\n마지막 질문을 던졌다. 어떤 기업이 되고 싶은가.\n“유행 따라가는 AI 기업이 되고 싶지 않습니다. 규제가 강한 시장에서 ‘매일 쓰이는 도구’를 만드는 것, 이 도구 없이는 일하기 불편한 상태를 만드는 게 더 중요하죠.”\n영국에서 건축을 배우고 한국 현장에서 비효율을 목격한 건축가가, 이제 공공기관과 대기업이 선택한 AI 솔루션을 만들고 있다. 이 땅에서 무엇이 가능한가.\n흩어진 데이터가 한 화면에서 만나기 시작했다. 부동산 개발의 시작점에 한 건축가가 서 있다.\nFacebook\nTwitter\nLinkedIn\nPrint\nLike this:\nLike\nLoading...\nRelated\n부동산 개발\nThe first step in AI-driven real estate development: Jeon Ju-hyung, CEO of Edit Collective.\nIn real estate development, the first step is crucial: what can be built on the land, and what kind of structure will generate profits.\nHowever, judgment was always slow. Legal information was scattered everywhere, and data had to be collected manually. Relying on the experience of a small number of experts, similar mistakes were repeated.\nNow, developers and institutions can assess a land's development potential and profitability within two to three minutes. This is happening at a site where \"Flexity,\" an AI-based automated planning, design, and feasibility analysis solution, has been implemented. Planning and design reviews, which used to take weeks, have been reduced to minutes. Real estate development is shifting from experience to data. Leading this shift is Jeon Ju-hyung, CEO of Edit Collective.\nQuestions posed by the scene\nCEO Jeon Ju-hyung began his career as an architect. He studied architecture at the University of Edinburgh and completed his master's degree at the UCL Bartlett School of Architecture. After returning to Korea, he worked at a general architecture firm, participating in the planning and design of urban development projects. However, he was constantly confronted with inefficiency.\n\"The planning and design process was overly labor-intensive. Important decisions were made early on, but the process was slow and disorganized.\"\nThe architect's drawings and the developer's figures described the same building in completely different terms. One side discussed layout and traffic flow, while the other considered sellability and profitability. It took time to reconcile the two, and the final decision was reached in a rushed manner.\n\"Wouldn't it be more efficient to translate the design flow in an architect's head onto an algorithm and analyze it based on data? That was the starting point.\"\nInitially, I developed the software for personal use. Applying it to actual projects, the review process significantly accelerated. Meeting my co-founder, engineer Bong-cheol Kim, gave ","summary":null,"published_date":null,"created_at":"2026-01-19T04:19:16.954398","updated_at":null},{"id":3,"company_id":null,"collection_id":6,"source":"venturesquare","source_url":"https://www.venturesquare.net/1031956/","title":"SDT, 300억 원 투자 유치","content":"양자기술 전문기업 SDT는 사모펀드 운용사 프랙시스캐피탈파트너스와 NH투자증권으로부터 총 300억 원 규모의 투자를 유치했다고 밝혔다.\nSDT는 이번 투자로 확보한 자금을 AI와 양자컴퓨팅을 결합한 하이브리드 인프라 구축과 핵심 기술 고도화에 투입할 계획이다. 이를 통해 인공지능 확산에 따라 증가하는 대규모 연산 수요에 대응할 수 있는 차세대 컴퓨팅 솔루션을 개발하고, 관련 시장에서의 경쟁력 강화를 추진한다는 방침이다.\n투자를 주도한 프랙시스캐피탈파트너스는 SDT가 보유한 양자와 AI 하이브리드 기반의 풀스택 기술력과 사업 확장 가능성을 주요 투자 배경으로 제시했다. SDT는 하드웨어와 소프트웨어를 통합한 기술 구조를 바탕으로 국내 최초 상업용 양자 컴퓨터 공급 실적을 확보한 바 있다.\nSDT는 최근 국내 최초로 상업용 양자 하이브리드 시스템 공급 계약을 체결하며 기술 완성도와 상용화 역량을 입증했다. 회사는 이번 투자 유치를 계기로 공공 및 민간 시장에서의 사업 범위를 확대하고 기존 사업 규모를 확장해 나갈 계획이다.\n아울러 SDT는 상장 대표주관사인 NH투자증권과 함께 기술특례상장을 위한 평가 및 기업공개 준비를 진행 중이다. 독자적인 양자·AI 하이브리드 기술 경쟁력과 상용화 성과를 기반으로 기술특례평가 절차를 추진하고 있으며, 연내 상장을 목표로 준비에 속도를 내고 있다.\n한편 SDT는 AI 데이터센터를 중심으로 양자 컴퓨터 공급이 확대되면서 매출 성장이 가시화되고 있다. 회사 측은 추가 공급 계약이 순차적으로 진행될 경우 향후 매출 규모가 큰 폭으로 증가할 것으로 전망하고 있다.\n관련 기사 더 보기\nSDT, QAI와 상업용 양자-고전 하이브리드 시스템 구축 계약 체결\nFacebook\nTwitter\nLinkedIn\nPrint\nLike this:\nLike\nLoading...\nRelated\nAI데이터센터\nAI하이브리드\nIPO\nNH투자증권\nSDT\n기술특례상장\n양자기술\n양자컴퓨팅\n투자유치\n프랙시스캐피탈파트너스\nSDT attracts 30 billion won in investment\nQuantum technology specialist SDT announced that it has secured a total investment of 30 billion won from private equity fund management firm Praxis Capital Partners and NH Investment & Securities.\nSDT plans to use the funds raised through this investment to build a hybrid infrastructure that combines AI and quantum computing, and to advance its core technologies. Through this, it aims to develop next-generation computing solutions capable of meeting the growing demand for large-scale computations driven by the proliferation of AI, and to strengthen its competitiveness in related markets.\nPraxis Capital Partners, which led the investment, cited SDT's full-stack quantum and AI hybrid technology and its potential for business expansion as key investment drivers. SDT has secured Korea's first commercial quantum computer supply, leveraging its integrated hardware and software technology architecture.\nSDT recently signed a contract to supply Korea's first commercial quantum hybrid system, demonstrating its technological maturity and commercialization capabilities. The company plans to capitalize on this investment to expand its business scope in both the public and private markets and expand the scale of its existing operations.\nAdditionally, SDT is working with NH Investment & Securities, the lead underwriter, to evaluate and prepare for a technology-specific listing. Based on its unique quantum/AI hybrid technology competitiveness and commercialization achievements, SDT is pursuing the technology-specific evaluation process and accelerating preparations with the goal of listing within the year.\nMeanwhile, SDT is seeing visible sales growth as its quantum computer supply expands, particularly for AI data centers. The company anticipates significant future sales growth as additional supply contracts are signed sequentially.\nSee more related articles\nSDT Signs Agreement with QAI to Build Commercial Quantum-Classical Hybrid Systems\nSDT、300億ウォン投資誘致\n量子技術専門企業SDTは、プライベートエクイティの運用会社であるフラクシスキャピタルパートナーズとNH投資証券から合計300億ウォン規模の投資を誘致したと明らかにした。\nSDTは今回の投資で確保した資金をAIと量子コンピューティングを組み合わせたハイブリッドインフラ構築と核心技術の高度化に投入する計画だ。これにより、人工知能の拡散により増加する大規模な演算需要に対応できる次世代コンピューティングソリューションを開発し、関連市場での競争力強化を推進する方針だ。\n投資を主導したフラクシスキャピタルパートナーズは、SDTが保有する両者とAIハイブリッドベースのフルスタック技術力と事業拡張可能性を主要投資背景として提示した。 SDTは、ハードウェアとソフトウェアを統合した技術構造をもとに、国内初の商業用量子コンピュータ供給実績を確保したことがある。\nSDTは最近、国内初の商業用量子ハイブリッドシステム供給契約を締結し、技術の完成度と商用化能力を立証した。同社は今回の投資誘致を契機に公共及び民間市場での事業範囲を拡大し、既存の事業規模を拡大していく計画だ。\nまた、SDTは上場代表主管会社であるNH投資証券とともに技術特例上場のための評価及び企業公開準備を進めている。独自の量子・AIハイブリッド技術競争力と商用化成果をベースに技術特例評価手続きを推進しており、年内上場を目指して準備にスピードを出している。\n一方、SDTはAIデータセンターを中心に量子コンピュータ供給が拡大し、売上成長が可視化されている。会社側は追加供給契約が順次進行する場合、今後の売上規模が大幅に増加すると予想している。\n関連記事をもっと見る\nSDT、QAIと商用量子-古典ハイブリッドシステム構築契約締結\nSDT吸引了300亿韩元的投资\n量子技术专家 SDT 宣布，已从私募股权基金管理公司 Praxis Capital Partners 和 NH Investment & Securities 获得总计 300 亿韩元的投资。\nSDT计划利用此次投资募集的资金构建融合人工智能和量子计算的混合基础设施，并推进其核心技术的发展。通过此举，SDT旨在开发能够满足人工智能普及带来的大规模计算需求的下一代计算解决方案，并增强其在相关市场的竞争力。\n领投此轮投资的 Praxis Capital Partners 指出，SDT 的全栈量子和人工智能混合技术及其业务拓展潜力是关键的投资驱动因素。SDT 凭借其集成的软硬件技术架构，已获得韩国首个商用量子计算机供应项目。\nSDT近期签署了一份合同，将为韩国提供首个商用量子混合系统，这展现了其技术成熟度和商业化能力。该公司计划利用这项投资，拓展其在公共和私人市场的业务范围，并扩大现有业务规模。\n此外，SDT正与主承销商NH投资证券合作，评估并筹备技术专项上市。凭借其独特的量子/人工智能混合技术竞争力及商业化成果，SDT正积极推进技术专项评估流程，并加快上市筹备工作，力争年内上市。\n与此同时，随着量子计算机供应量的增加，SDT的销售额也呈现明显增长，尤其是在人工智能数据中心领域。该公司预计，随着更多供应合同的陆续签署，未来销售额将实现显著增长。\n查看更多相关文章\nSDT与QAI签署协议，共同构建商用量子-经典混合系统\nSDT attire 30 milliards de wons d'investissements\nLa société SDT, spécialisée dans les technologies quantiques, a annoncé avoir obtenu un investissement total de 30 milliards de wons de la part de la société de gestion de fonds de capital-investissement Praxis Capital Partners et de NH Investment & Securities.\nSDT prévoit d'utiliser les fonds levés grâce à cet investissement pour construire une infrastructure hybride combinant intelligence artificielle et informatique quantique, et pour faire progresser ses technologies fondamentales. L'entreprise ambitionne ainsi de développer des solutions informatiques de nouvelle génération ","summary":null,"published_date":null,"created_at":"2026-01-19T04:19:18.644384","updated_at":null},{"id":4,"company_id":null,"collection_id":6,"source":"venturesquare","source_url":"https://www.venturesquare.net/1011412/","title":"“보증금 5천만원 벽을 지웠습니다”…김준영 KRG그룹 대표, 6백억 원 임대차 혁명","content":"2020년 이전 서울의 청년들은 딜레마에 빠져 있었다. 직장은 서울인데 원룸 보증금은 무려 5,000만 원. 월세로 전환하면 월 100만 원이 훌쩍 넘었다. 부모에게 손 벌리기 미안하고, 대출은 신용등급을 깎아먹었다. 결국 출퇴근 2시간을 감수하거나 지하방을 선택할 수밖에 없었다.\n임대인도 편치 않았다. 보증금을 낮추면 연체 리스크가 커지고, 높게 받으면 공실이 길어졌다. 서울 원룸 공실률은 10%를 넘나들었고 임대수익률은 연 3%대로 추락했다.\n이 구조적 모순 속에서 2020년 한 스타트업이 등장했다. KRG그룹의 ‘개런티즈’였다. “보증금 없이도 집을 얻을 수 있다”는 파격적인 제안이었다.\n5년이 지난 지금, 개런티즈는 600억 원의 보증금을 절감하고 350억 원 규모의 월세 거래를 중개하고 있다. 월평균 30% 성장률을 기록 중이며 올 하반기 월간 손익분기점을 달성했다. 부실률은 0.6~0.8%로 업계 평균을 크게 밑돈다.\n수수료는 평균 월세의 10% 수준. 임차인 심사 결과에 따라 달라지지만, 임대차 리스크와 거래 안정성을 종합 반영한 결과다. 운영비는 주로 인건비, 원시데이터 활용 비용, 마케팅비, 연체 대응 비용으로 구성된다.\n“특히 심사 모듈의 정교함이 사업의 핵심입니다. ‘100건이 1건에 무너지지 않도록’ 많은 노력을 기울이고 있어요. 단순히 계약을 늘리는 것보다, 건전한 구조를 유지하며 시장의 신뢰를 지키는 게 더 중요합니다.”\n부실률 1.5%→0.6%, 7명이 만든 성과\n부실률 추이가 눈에 띈다. 도입 초기 1.5%였던 부실률이 내부 회수 시스템 고도화와 심사 모듈 강화 이후 1.0%를 거쳐 0.6%까지 떨어졌다. 신규 계약이 빠르게 누적되는 상황에서도 유지되는 수치다.\n“금액 기준과 청구 건수 기준 모두 0.6~0.8% 수준입니다. 업계 평균 대비 낮죠. 구상권 청구 프로세스를 체계화했고, 데이터 기반 선제적 리스크 관리로 건전한 포트폴리오를 유지하고 있습니다.”\n김준영 대표는 투자·서비스 개발·파트너십을 담당하고, 김기성 공동대표는 영업조직 관리와 현장 운영을 이끈다. 두 사람은 비슷한 지분 구조를 갖고 있다.\n“전략과 실행이 균형 있게 맞물려 있어요. 서로 역할이 명확하고 전문성을 존중하기 때문에 빠르고 합리적인 결정을 내릴 수 있어요. 이게 우리의 강점이죠.”\n현재 KRG그룹은 7명으로 운영된다. 심사개발팀, 재무전략팀, 영업팀으로 구성된 컴팩트한 조직이다. 놀라운 건 과거 25명 규모였던 시절보다 주요 지표가 5배 이상 높다는 점이다.\n“효율적으로 성장할 수 있었던 건 현재 함께하는 직원들의 헌신과 전문성 덕분입니다. 작은 조직이지만 빠른 의사결정과 높은 실행력을 유지하고 있어요.”\n올해 9월 출시한 ‘개런티즈 사무실’ 서비스는 화제의 중심에서 문의가 몰리고 있다. 김준영 대표는 자신 있다는 표정이다. “출시 전 심사 시스템 검증을 충분히 마쳤습니다. 작년 상가 개인사업자 대상 첫 오픈에서 긍정적 반응을 얻었고, 올해 법인사업자로 확대했어요. 임차인의 납입 능력과 상환 여력을 다각도로 평가하는 알고리즘이 안정적으로 작동하고 있습니다.”\n실제로 교보생명 추천으로 선정된 TIPS 과제가 이 알고리즘 개발이었다. 개발은 완료됐고 실무에 적용 중이다. “사업자의 실제 영업활동과 납입 여력을 종합 분석해 안정적 거래가 이뤄지도록 돕는 기술”이라는 게 김준영 대표의 설명이다.\n시장 점유율은 아직 크지 않다. 하지만 김준영 대표는 조급해 보이지 않았다.\n“월평균 30% 성장률을 유지하고 있어요. 단기간에 시장을 장악하기보다 안정적인 서비스 품질과 신뢰를 쌓으며 꾸준히 성장하는 게 더 중요합니다.”\n경쟁 서비스와의 차별점을 묻자 명쾌한 답이 돌아왔다.\n“그들은 결제나 정보 중개 중심 플랫폼이고, 우리는 임대차 리스크를 실질적으로 관리하는 서비스입니다. ‘임대인의 안전’과 ‘임차인의 접근성’을 동시에 보장하는 구조죠. 경쟁보다는 협업을 지향합니다. 실제로 그 기업들 중 협업을 논의 중인 곳도 있죠.”\n최근 한국자산매입과 체결한 MOU도 실제 성과로 이어지고 있다. “협약 직후 현장에서 바로 계약이 성사되고 있어요. 양사 모두 시너지를 체감하고 있습니다.”\n시리즈 A 펀딩도 순항 중이다. 확보된 자금은 영업 확장, 브랜드 마케팅, 리스크 관리 시스템 고도화에 투입된다.\n“보증금이라는 개념 자체가 희미해질 것”\n지속가능성에 대한 질문에 김준영 대표는 잠시 생각하더니 답했다.\n“이 비즈니스가 쉽다면 진작에 대기업이 뛰어들었겠죠. 법적·금융적·운영적 리스크가 복잡하게 얽힌 영역이죠. 5년간 어려움이 많았지만 꾸준히 문제를 풀며 살아남았고, 이제는 명확한 성과 지표로 지속가능성을 확신합니다.”\n인터뷰를 마치며 10년 후 임대차 시장을 물었다. 김준영 대표는 단호하게 답했다. “아마 보증금이라는 개념 자체가 희미해질 겁니다. 지금 청년들과 소상공인은 보증금 5000만 원 벽 앞에서 좌절하고 있어요. 이 구조가 지속 가능할 리 없죠. 결국 데이터 기반 신용평가와 리스크 관리 시스템이 보증금을 대체할 겁니다.”\n그의 말이 맞는지, 5년 후면 알 수 있을 것이다. 분명한 건 2020년 이전과 이후의 임대차 시장이 달라졌다는 사실이다. 보증금 없이도 집과 창업 공간을 얻을 수 있다는 선택지가 생겼고, 그 선택지는 600억 원을 절감시키며 넓어지고 있다.\nFacebook\nTwitter\nLinkedIn\nPrint\nLike this:\nLike\nLoading...\nRelated\nKRG그룹\n개런티즈\n김준영\n보증금 제로\n\"We've Erased the 50 Million Won Deposit Barrier\"… KRG Group CEO Kim Jun-young Launches a 60 Billion Won Lease Revolution\nBefore 2020, young people in Seoul faced a dilemma. They had jobs in the city, but the deposit for a studio apartment was a staggering 50 million won. Converting to monthly rent would easily cost over 1 million won. They felt bad about asking their parents for money, and taking out a loan would hurt their credit rating. Ultimately, they had no choice but to endure a two-hour commute or live in a basement apartment.\nLandlords were also uneasy. Lowering the deposit increased the risk of default, while higher deposits prolonged vacancy. The vacancy rate for one-room apartments in Seoul hovered around 10%, and rental yields plummeted to the 3% range.\nAmidst this structural contradiction, a startup emerged in 2020: KRG Group's \"Guarantee.\" It offered a groundbreaking proposal: \"You can get a home without a deposit.\"\nFive years later, Guarantees has saved 60 billion won in deposits and brokered 35 billion won in monthly rental transactions. It is growing at an average of 30% monthly and achieved monthly break-even in the second half of this year. Its non-performing loan ratio stands at 0.6-0.8%, significantly below the industry average.\nThe commission is approximately 10% of the average monthly rent. It varies depending on the tenant screening results, but it comprehensively reflects lease risk and transaction stability. Operating expenses primarily consist of labor costs, raw data utilization costs, marketing expenses, and delinquency response costs.\n\"In particular, the sophistication of our review module is key to our business. We're putting a lot of effort into ensuring that '100 cases don't collapse due to one.' Maintaining a sound structure and maintaining market trust is more important than simply increasing contracts.\"\nBad debt rate from 1.5% to 0.6%, an achievement made by 7 people\nThe trend in the default rate is striking. Initially at 1.5%, it dropped to 1.0% and then to 0.6% after the internal collection system was improved and the review module was strengthened. This figure remains unchanged even as new contracts accumulate rapidly.\n\"Both based on the amount and number of claims, the ratio is around 0.6-0.8%. This is lower than the industry average. We ha","summary":null,"published_date":null,"created_at":"2026-01-19T04:19:20.021490","updated_at":null},{"id":5,"company_id":null,"collection_id":6,"source":"venturesquare","source_url":"https://www.venturesquare.net/1032843/","title":"클래시스, JP모건 헬스케어 콘퍼런스 패널 토론 참여","content":"글로벌 메디컬 에스테틱 전문 기업 ㈜클래시스(대표 최윤석)는 세계 최대 제약·바이오 투자 행사인 ‘2026 JP모건 헬스케어 콘퍼런스(JPMHC)’에서 진행된 패널 토론을 마무리하며 글로벌 투자자들로부터 ‘올해 주목해야 할 종목’으로 주목받았다고 15일 밝혔다.\n클래시스는 14일(현지 시각) 콘퍼런스 공식 프로그램 패널 세션에 참석해 ‘비욘드 K-뷰티(Beyond K-Beauty)’를 주제로 토론을 진행했다. 해당 세션은 JP모건 헬스케어 콘퍼런스에서 K-뷰티를 주요 의제로 다룬 이례적 사례로, 토론 현장에서는 한국 기업 중심의 글로벌 미용 의료 산업 전개와 투자자 관심이 집중됐다. 클래시스는 글로벌 EBD 장비 기업 중 유일하게 초대되며 국내 기업 최초로 패널 토론을 이끌었다.\n토론에서 클래시스는 K-미용 의료의 진화 방향과 EBD 기술 경쟁력, 중장기 성장 전략을 소개했다. 슈링크 유니버스(HIFU), 볼뉴머(모노폴라 RF), 쿼드세이(마이크로니들 RF) 등 에스테틱 EBD 장비 포트폴리오와 올해 출시한 홈 뷰티 디바이스 ‘리프투글로우(Lift2Glow)’를 통해 글로벌 시장 확대 전략을 공유했다.\n패널로 참석한 피부과 전문의 마크 할시 박사는 클래시스 장비가 환자 만족도가 높고 시술 효율성이 우수하다고 평가하며, 미국 시장에서 차별화된 솔루션으로 자리 잡을 것이라고 설명했다. 한 미국계 투자자는 브라질 자회사 인수를 통한 직접 유통 체계 구축으로 글로벌 시장 점유율 확대가 가능할 것이라며 긍정적 평가를 내렸다.\n이번 패널 토론은 투자자들에게 K-뷰티 산업의 구조적 성장 가능성과 클래시스의 반복 매출 기반 비즈니스 모델을 확인하는 기회가 됐다는 분석이다. 토론에서 클래시스는 고객 잠금(lock-in) 효과를 극대화한 복합 시술 프로토콜과 리커링 구조를 강조하며 장기 투자 매력도를 제시했다.\n클래시스 김래희 마케팅본부장은 “클래시스는 미용 의료기기 기업을 넘어 고객 라이프스타일 전반을 관리하는 기업으로 진화할 것”이라며, 글로벌 시장에서 매출 10억 달러, 영업이익률 50% 이상 달성을 목표로 공격적 사업 확장을 이어갈 계획이라고 밝혔다.\n이번 패널 토론 참여를 계기로 클래시스의 글로벌 인지도와 투자자 신뢰도가 한층 강화됐으며, K-뷰티 기술과 시장 확장 전략의 장기적 가능성에 대한 긍정적 평가가 이어졌다.\nFacebook\nTwitter\nLinkedIn\nPrint\nLike this:\nLike\nLoading...\nRelated\nEBD\nJP모건 헬스케어 콘퍼런스\nK-뷰티\n글로벌 시장 확장\n글로벌 투자\n리프투글로우\n메디컬 에스테틱\n볼뉴머\n슈링크 유니버스\n에너지 기반 장비\n쿼드세이\n클래시스\nClassis Participates in Panel Discussion at JP Morgan Healthcare Conference\nGlobal medical aesthetics company Classis Co., Ltd. (CEO Choi Yoon-seok) announced on the 15th that it has received attention from global investors as a 'stock to watch this year' after concluding a panel discussion held at the '2026 JP Morgan Healthcare Conference (JPMHC),' the world's largest pharmaceutical and bio investment event.\nOn the 14th (local time), Classys participated in the conference's official program panel session and led a discussion on the topic of \"Beyond K-Beauty.\" This session marked an unusual case for the JP Morgan Healthcare Conference to feature K-Beauty as a key topic, and the discussion focused on the global aesthetics and medical industry, led by Korean companies, and on investor interest. Classys was the only global EBD equipment company invited and the first Korean company to lead the panel discussion.\nDuring the discussion, Classis presented the future direction of K-beauty medicine, the competitiveness of EBD technology, and its mid- to long-term growth strategy. The company shared its portfolio of aesthetic EBD devices, including Shrink Universe (HIFU), Volnumer (Monopolar RF), and Quadsay (Microneedle RF), as well as its global market expansion strategy through the home beauty device \"Lift2Glow,\" launched this year.\nDr. Mark Halsey, a dermatologist who participated in the panel, praised the Classis device for its high patient satisfaction and superior treatment efficiency, explaining that it will establish itself as a differentiated solution in the US market. An American investor also offered a positive assessment, citing the acquisition of a Brazilian subsidiary and the establishment of a direct distribution system, which will allow the device to expand its global market share.\nThis panel discussion provided investors with an opportunity to explore the structural growth potential of the K-beauty industry and Classis' recurring revenue-based business model. During the discussion, Classis highlighted its long-term investment appeal by emphasizing its combined treatment protocol and recurring structure, which maximizes customer lock-in.\nKim Rae-hee, head of marketing at Classis, said, “Classis will evolve beyond a cosmetic medical device company into a company that manages the entire customer lifestyle,” and announced plans to continue aggressive business expansion with the goal of achieving $1 billion in sales and an operating profit margin of over 50% in the global market.\nParticipation in this panel discussion further strengthened Classis' global recognition and investor confidence, and led to positive evaluations of the long-term potential of its K-beauty technology and market expansion strategy.\nクラシス、JPモーガンヘルスケアカンファレンスパネルディスカッション参加\nグローバルメディカルエステ専門企業(株)クラシス(代表チェ・ユンソク)は世界最大の製薬・バイオ投資行事である'2026 JPモーガンヘルスケアカンファレンス(JPMHC)'で行われたパネル討論を終え、グローバル投資家らから'今年注目すべき種目'と注目されたと述べた。\nクラシスは14日(現地時刻)カンファレンス公式プログラムパネルセッションに参加し、「ビヨンドK-ビューティー(Beyond K-Beauty)」をテーマに討論を行った。同セッションはJPモーガンヘルスケアカンファレンスでKビューティーを主要議題として扱った異例の事例で、討論現場では韓国企業中心のグローバル美容医療産業展開と投資家関心が集中された。クラシスはグローバルEBD機器企業の中で唯一招待され、国内企業で初めてパネルディスカッションを導いた。\nディスカッションでは、クラシスはK美容医療の進化方向とEBD技術の競争力、中長期成長戦略を紹介した。シュリンクユニバース（HIFU）、ボルニューマー（モノポーラRF）、クアッドセイ（マイクロニードルRF）などエステティックEBD機器ポートフォリオと今年発売したホームビューティーデバイス「リーフトゥグロー（Lift2Glow）」を通じてグローバル市場拡大戦略を共有した。\nパネルに出席した皮膚科専門のマーク・ハルシー博士は、クラシス装置が患者満足度が高く、施術効率性に優れていると評価し、米国市場で差別化されたソリューションとして位置づけると説明した。ある米国系投資家は、ブラジル子会社の買収を通じた直接流通体系の構築により、グローバル市場シェア拡大が可能だと肯定的な評価を下した。\n今回のパネルディスカッションは、投資家にKビューティー産業の構造的成長可能性とクラシスの繰り返し売上ベースのビジネスモデルを確認する機会になったという分析だ。ディスカッションでは、クラシスは顧客のロックイン効果を最大化した複合施術プロトコルとリカリング構造を強調し、長期投資の魅力を提示した。\nクラシス・キム・レヒマーケティング本部長は「クラシスは美容医療機器企業を超えて顧客ライフスタイル全般を管理する企業","summary":null,"published_date":null,"created_at":"2026-01-19T04:19:21.349869","updated_at":null},{"id":1,"company_id":null,"collection_id":6,"source":"venturesquare","source_url":"https://www.venturesquare.net/1032542/","title":"SDT, 모빌린트와 업무협약 체결","content":"양자기술 전문기업 SDT(대표 윤지원)는 AI 반도체 기업 모빌린트(대표 신동주)와 공공 및 민간 부문 적용을 위한 QRNG·QKD 기반 양자 기술과 AI 제어 기술의 공동 연구 및 상용화를 목적으로 업무협약(MOU)을 체결했다고 14일 밝혔다.\n이번 협약은 AI 반도체 기술과 양자 보안 기술을 융합해 유·무인 기동 플랫폼의 통신 보안을 강화하고, 자율주행 및 기동 시스템의 신뢰성을 높이기 위한 협력 체계를 구축하는 데 목적이 있다. 양사는 모빌리티 환경에서 발생할 수 있는 해킹 위협에 대응하고, 공공 및 민간 분야에서 활용 가능한 보안 중심의 기동 플랫폼 생태계 조성을 추진할 계획이다.\n협약에 따라 양사는 AI 기반 유·무인 기동 플랫폼 제어 기술과 QRNG(양자난수생성), QKD(양자키분배) 기반 양자 암호 기술을 결합한 공동 기술 개발에 나선다. QRNG는 양자의 불규칙성을 활용해 예측이 불가능한 난수를 생성하는 기술이며, QKD는 해당 암호키를 도청 위험 없이 전달하는 통신 기술이다.\n자율주행차, 드론 등 무인 기동 플랫폼은 대량의 데이터를 실시간으로 송수신해야 하는 특성상 통신 보안이 중요하게 요구된다. 이에 따라 기존 암호 체계로 대응하기 어려운 지능형 해킹이나 원격 제어 탈취 위협을 줄이기 위한 기술로 양자 보안 기술의 적용 가능성이 주목되고 있다.\n양사는 각사가 보유한 인력과 시설, 장비 등을 활용해 공동 연구 개발을 진행하며, SDT의 양자 보안 솔루션을 모빌린트의 AI 반도체가 적용된 기동 플랫폼에 결합한 상용화 모델을 검토할 예정이다. 이와 함께 실제 운용 환경에서의 실증 연구(PoC)를 통해 기술 안정성을 검증하고, 향후 인증 체계 구축과 기술 확산을 위한 협력도 추진한다.\n또한 공동 연구 성과의 대내외 공유와 학술적 확산을 위해 관련 홍보 및 연구 활동에서도 협력을 이어갈 방침이다.\n관련 기사 더 보기\nSDT, 300억 원 투자 유치\nFacebook\nTwitter\nLinkedIn\nPrint\nLike this:\nLike\nLoading...\nRelated\nAI반도체\nQKD\nQRNG\nSDT\n모빌린트\n무인기동플랫폼\n보안기술\n양자기술\n양자암호\n자율주행\nSDT Signs Business Agreement with Mobilint\nQuantum technology specialist SDT (CEO Jiwon Yoon) announced on the 14th that it has signed a memorandum of understanding (MOU) with AI semiconductor company Mobilint (CEO Dongjoo Shin) for the purpose of joint research and commercialization of QRNG·QKD-based quantum technology and AI control technology for application in the public and private sectors.\nThis agreement aims to establish a cooperative system that combines AI semiconductor technology with quantum security to strengthen communication security for manned and unmanned mobile platforms and enhance the reliability of autonomous driving and mobility systems. The two companies plan to counter potential hacking threats in mobility environments and promote the creation of a security-focused mobility platform ecosystem applicable to both the public and private sectors.\nUnder the agreement, the two companies will jointly develop technologies that combine AI-based manned and unmanned mobile platform control technology with quantum cryptography technologies based on QRNG (Quantum Random Number Generation) and QKD (Quantum Key Distribution). QRNG utilizes the irregularity of quantum mechanics to generate unpredictable random numbers, while QKD is a communications technology that transmits the corresponding encryption keys without the risk of eavesdropping.\nUnmanned mobile platforms like autonomous vehicles and drones require critical communication security due to their need to transmit and receive massive amounts of data in real time. Consequently, the potential application of quantum security technology is gaining attention as a way to mitigate threats like intelligent hacking and remote control theft, which are difficult to address with existing cryptographic systems.\nThe two companies will conduct joint research and development utilizing their respective personnel, facilities, and equipment. They will also explore a commercialization model that integrates SDT's quantum security solution with Mobilint's AI semiconductor-based mobile platform. Furthermore, they will verify the stability of the technology through a proof-of-concept (PoC) in an actual operating environment and pursue cooperation to establish a certification system and expand the technology in the future.\nIn addition, we plan to continue cooperation in related promotional and research activities to share joint research results internally and externally and to disseminate them academically.\nSee more related articles\nSDT attracts 30 billion won in investment\nSDT、モビリントと業務協定締結\n量子技術専門企業SDT(代表ユン・ジウォン)はAI半導体企業モビリント(代表シンドンジュ)と公共及び民間部門適用のためのQRNG・QKD基盤量子技術とAI制御技術の共同研究及び商業化を目的に業務協約(MOU)を締結したと14日明らかにした。\n今回の条約は、AI半導体技術と量子セキュリティ技術を融合し、有・無人起動プラットフォームの通信セキュリティを強化し、自律走行および起動システムの信頼性を高めるための協力体制を構築することに目的がある。両社は、モビリティ環境で発生する可能性のあるハッキングの脅威に対応し、公共および民間の分野で活用可能なセキュリティ中心の起動プラットフォームエコシステムの構築を推進する計画だ。\n条約により、両社はAIベースの有無ドローンプラットフォーム制御技術とQRNG（量子乱数生成）、QKD（量子分配）ベースの量子暗号技術を組み合わせた共同技術開発に乗り出す。 QRNGは両者の不規則性を活用して予測不可能な乱数を生成する技術であり、QKDは該当暗号鍵を盗聴リスクなしに伝達する通信技術である。\n自律走行車、ドローンなどの無人起動プラットフォームは、大量のデータをリアルタイムで送受信しなければならないという特性上、通信セキュリティが重要に求められる。これにより、既存の暗号体系で対応しにくいインテリジェントハッキングや遠隔制御脱臭の脅威を減らすための技術として、量子セキュリティ技術の適用可能性が注目されている。\n両社は各社が保有する人材と施設、設備などを活用して共同研究開発を進め、SDTの量子セキュリティソリューションをモビリントのAI半導体が適用された起動プラットフォームに結合した商用化モデルを検討する予定だ。これとともに、実際の運用環境での実証研究（PoC）を通じて技術の安定性を検証し、今後の認証体系の構築と技術拡散のための協力も推進する。\nまた、共同研究成果の対内外共有と学術的拡散のために関連広報や研究活動でも協力を続ける方針だ。\n関連記事をもっと見る\nSDT、300億ウォン投資誘致\nSDT与Mobilint签署商业协议\n量子技术专家 SDT（CEO 尹智媛）于 14 日宣布，已与人工智能半导体公司 Mobilint（CEO 申东柱）签署谅解备忘录 (MOU)，旨在联合研究和商业化基于 QRNG·QKD 的量子技术和人工智能控制技术，以应用于公共和私营部门。\n该协议旨在建立一个结合人工智能半导体技术和量子安全技术的合作体系，以加强有人和无人移动平台的通信安全，并提升自动驾驶和移动出行系统的可靠性。两家公司计划共同应对移动出行环境中潜在的黑客威胁，并推动构建一个面向公共和私营部门的安全型移动出行平台生态系统。\n根据协议，两家公司将联合开发结合人工智能的有人和无人移动平台控制技术与基于量子随机数生成器（QRNG）和量子密钥分发（QKD）的量子密码技术的混合技术。QRNG利用量子力学的不规则性生成不可预测的随机数，而QKD是一种通信技术，可以在传输相应加密密钥时避免被窃听的风险。\n无人移动平台，例如自动驾驶汽车和无人机，由于需要实时传输和接收海量数据，因此对通信安全有着至关重要的要求。因此，量子安全技术的潜在应用正日益受到关注，它有望缓解诸如智能黑客攻击和远程控制","summary":null,"published_date":null,"created_at":"2026-01-19T04:19:15.172535","updated_at":null}],"total":73,"page":1,"page_size":5,"total_pages":15}